{
  "default": [
    {
      "stationId": "8718111790250988",
      "stationName": "KEXP 90.3 FM",
      "artworkUrl": "http://airableassetscdn.wifiradiofrontier.com/png@150x150/87/18/111790250988.png"
    },
    {
      "stationId": "1072092418093234",
      "stationName": "The Arrow",
      "artworkUrl": "http://airableassetscdn.wifiradiofrontier.com/png@150x150/10/72/092418093234.png"
    },
    {
      "stationId": "9139205781277270",
      "stationName": "Planet Rock",
      "artworkUrl": "http://airableassetscdn.wifiradiofrontier.com/png@150x150/91/39/205781277270.png"
    },
    {
      "stationId": "7665241143200547",
      "stationName": "KCRW",
      "artworkUrl": "http://airableassetscdn.wifiradiofrontier.com/png@150x150/76/65/241143200547.png"
    },
    {
      "stationId": "8785094880964608",
      "stationName": "BBC Radio 6 Music",
      "artworkUrl": "http://airableassetscdn.wifiradiofrontier.com/png@150x150/87/85/094880964608.png"
    },
    {
      "stationId": "4478677503764630",
      "stationName": "Monocle 24",
      "artworkUrl": "http://airableassetscdn.wifiradiofrontier.com/png@150x150/44/78/677503764630.png"
    },
    {
      "stationId": "2972408424131572",
      "stationName": "BBC Radio 2",
      "artworkUrl": "http://airableassetscdn.wifiradiofrontier.com/png@150x150/29/72/408424131572.png"
    }
  ]
}
